{
	"Version": 3,
	"FileReferences": {
		"Moc": "灰太狼9.moc3",
		"Textures": [
			"灰太狼9.1024/texture_00.png"
		],
		"DisplayInfo": "灰太狼9.cdi3.json"
	},
	"Groups": [
		{
			"Target": "Parameter",
			"Name": "LipSync",
			"Ids": []
		},
		{
			"Target": "Parameter",
			"Name": "EyeBlink",
			"Ids": []
		}
	]
}